<svg width="15" height="15" viewBox="0 0 15 15" fill="none" xmlns="http://www.w3.org/2000/svg">
<path fill-rule="evenodd" clip-rule="evenodd" d="M7.50023 14.0005C11.0902 14.0005 14.0005 11.0902 14.0005 7.50023C14.0005 3.91024 11.0902 0.999972 7.50023 0.999972C3.91024 0.999971 0.99997 3.91024 0.99997 7.50023C0.99997 11.0902 3.91023 14.0005 7.50023 14.0005ZM15.0005 7.50023C15.0005 11.6425 11.6425 15.0005 7.50023 15.0005C3.35795 15.0005 -3.0224e-05 11.6425 -2.98619e-05 7.50023C-2.94998e-05 3.35795 3.35795 -2.86744e-05 7.50023 -2.83122e-05C11.6425 -2.79501e-05 15.0005 3.35795 15.0005 7.50023ZM7.50047 11.5006C7.22433 11.5006 7.00047 11.2768 7.00047 11.0006L7.00047 6.62546C7.00047 6.34931 7.22433 6.12546 7.50047 6.12546C7.77662 6.12546 8.00047 6.34931 8.00047 6.62546L8.00047 11.0006C8.00047 11.2768 7.77662 11.5006 7.50047 11.5006ZM7.50047 4.50036C7.77662 4.50036 8.00047 4.2765 8.00047 4.00036C8.00047 3.72422 7.77662 3.50036 7.50047 3.50036L7.49165 3.50036C7.21551 3.50036 6.99165 3.72422 6.99165 4.00036C6.99165 4.2765 7.21551 4.50036 7.49165 4.50036L7.50047 4.50036Z" fill="black"/>
</svg>
